{
    "content": [
        {
            "id": 9,
            "title": "Блюдо 4",
            "timeCook": 10,
            "type": {
                "id": 1,
                "value": "dish",
                "types": [
                    {
                        "id": 1,
                        "value": "image/png"
                    },
                    {
                        "id": 3,
                        "value": "image/jpeg"
                    },
                    {
                        "id": 2,
                        "value": "image/svg"
                    }
                ]
            },
            "file": {
                "filePath": "./Images/dish-images/9cefd7d4-36e6-4828-b42b-20e717631eae_schemev.1.0.0.png",
                "id": 16
            },
            "tags": [
                {
                    "id": 2,
                    "value": "ужин"
                }
            ],
            "dishIngredients": [
                {
                    "id": 2,
                    "ingredient": {
                        "id": 1,
                        "title": "сахар",
                        "measure": "гр."
                    },
                    "quantity": 10.9
                }
            ],
            "events": [
                {
                    "id": 1,
                    "title": "Happy new year",
                    "startDate": "2024-12-25",
                    "endDate": "2025-01-13"
                }
            ]
        }
    ],
    "pageable": {
        "pageNumber": 0,
        "pageSize": 10,
        "sort": {
            "sorted": false,
            "empty": true,
            "unsorted": true
        },
        "offset": 0,
        "unpaged": false,
        "paged": true
    },
    "last": true,
    "totalPages": 2,
    "totalElements": 4,
    "first": false,
    "size": 3,
    "number": 0,
    "sort": {
        "sorted": false,
        "empty": true,
        "unsorted": true
    },
    "numberOfElements": 1,
    "empty": false
}